Chapter 1 Data preparation | Forecast evaluation pipeline
…
  ## execute the preprocessing pipeline
  d_stationary <- transform_fred(d, tcode = tcodes)
  d_outlier <- outlier_to_missing(d_stationary)
  # d_imputed <- extract_and_fill(d_outlier, r = 8)$imputed
  d_imputed <- em_impute(d_outlier, r, thresh, verbose)
  
  ## output
  return(d_imputed)
}

preprocessed_data <- preprocess_fredmd(fredmd)

preprocessed_data
#> # A tibble: 770 x 128
#>    sasdate         RPI   W875RX1 DPCERA3~1 CMRMTS~2  RETAILx
#>    <chr>         <dbl>     <dbl>     <dbl>    <dbl>    <dbl>
#>  1 1/1/1959   0.00191   0.00178    0.00408  5.17e-3  5.88e-3
#>  2 2/1/1959   0.00393   0.00361    0.0104   7.36e-3  7.31e-3
#>  3 3/1/1959   0.00643   0.00736    0.00941 -3.42e-3  8.32e-3
#>  4 4/1/1959   0.00649   0.00705   -0.00364  1.99e-2  6.16e-4
#>  5 5/1/1959   0.00576   0.00662    0.0120   6.80e-3  7.80e-3
#>  6 6/1/1959   0.00310   0.00297    0.00371 -5.15e-5  9.06e-3
#>  7 7/1/1959  -0.000589 -0.000764  -0.00343  1.21e-2 -3.30e-4
#>  8 8/1/1959  -0.00564  -0.00575    0.00600 -5.24e-2  6.36e-3
#>  9 9/1/1959   0.000721  0          0.0100   1.46e-2 -1.32e-2
#> 10 10/1/1959  0.00128   0.00115   -0.00684  1.60e-3  7.29e-3
#> # ... with 760 more rows, 122 more variables: INDPRO <dbl>,
#> #   IPFPNSS <dbl>, IPFINAL <dbl>, IPCONGD <dbl>,
#> #   IPDCONGD <dbl>, IPNCONGD <dbl>, IPBUSEQ <dbl>,
#> #   IPMAT <dbl>, IPDMAT <dbl>, IPNMAT <dbl>,
#> #   IPMANSICS <dbl>, IPB51222S <dbl>, IPFUELS <dbl>,
#> #   CUMFNS <dbl>, HWI <dbl>, HWIURATIO <dbl>,
#> #   CLF16OV <dbl>, CE16OV <dbl>, UNRATE <dbl>, ...
…
